^C:\USERS\RISLEY\DESKTOP\CODE\C++_MODULES\SRC\MAIN.CPP|C:\USERS\RISLEY\DESKTOP\CODE\C++_MODULES\SRC\POINT_CLOUD_METHODS.CPP
C:\USERS\RISLEY\DESKTOP\CODE\C++_MODULES\NEBULA\DEBUG\VC140.PDB
C:\USERS\RISLEY\DESKTOP\CODE\C++_MODULES\NEBULA\DEBUG\VC140.IDB
C:\USERS\RISLEY\DESKTOP\CODE\C++_MODULES\NEBULA\DEBUG\MAIN.OBJ
C:\USERS\RISLEY\DESKTOP\CODE\C++_MODULES\NEBULA\DEBUG\POINT_CLOUD_METHODS.OBJ
^C:\USERS\RISLEY\DESKTOP\CODE\C++_MODULES\SRC\MAIN.CPP
C:\USERS\RISLEY\DESKTOP\CODE\C++_MODULES\NEBULA\DEBUG\VC140.PDB
^C:\USERS\RISLEY\DESKTOP\CODE\C++_MODULES\SRC\POINT_CLOUD_METHODS.CPP
C:\USERS\RISLEY\DESKTOP\CODE\C++_MODULES\NEBULA\DEBUG\VC140.PDB
