hivpr_ligands-30: 51{ATOMS}, 29{INSTANCES} 
hivpr_decoys-560: 56{ATOMS}, 25{INSTANCES} 
hivpr_decoys-576: 56{ATOMS}, 25{INSTANCES} 
hivpr_ligands-29: 50{ATOMS}, 24{INSTANCES} 
hivpr_decoys-1621: 56{ATOMS}, 24{INSTANCES} 
